Access the Hathi Trust Bookworm and Extracted Features Files from R • hathiTools
…
result <- query_bookworm(word = c("democracy", "monarchy"), lims = c(1760, 2000), counttype = c("WordsPerMillion"))

result
#> # A tibble: 482 × 4
#>    word      date_year value counttype      
#>    <chr>         <int> <dbl> <chr>          
#>  1 democracy      1760 0.382 WordsPerMillion
#>  2 democracy      1761 0.253 WordsPerMillion
#>  3 democracy      1762 0.332 WordsPerMillion
#>  4 democracy      1763 0.455 WordsPerMillion
#>  5 democracy      1764 0.593 WordsPerMillion
#>  6 democracy      1765 0.279 WordsPerMillion
#>  7 democracy      1766 0.406 WordsPerMillion
#>  8 democracy      1767 0.809 WordsPerMillion
#>  9 democracy      1768 0.439 WordsPerMillion
#> 10 democracy      1769 0.579 WordsPerMillion
#> # … with 472 more rows
#> # ℹ Use `print(n = ...)` to see more rows
…
See the article “Using the Hathi Bookworm” for more on how to query the bookworm to get word frequencies grouped by particular fields and/or limited to specific categories.

Creating Worksets of Hathi Trust IDs

We can also create worksets of Hathi Trust IDs for volumes in the digital library that meet specific criteria, such as all volumes that mention “liberal” and “democracy” in the same page, or all volumes with by Alexis de Tocqueville in the “author” field.

result2 <- workset_builder("liberal democracy", volumes_only = FALSE)

result2
#> # A tibble: 6,341 × 2
#>    htid                     id                                  
#>    <chr>                    <chr>                               
#>  1 aeu.ark:/13960/t05x3k82c aeu.ark:/13960/t05x3k82c.page-000075
#>  2 aeu.ark:/13960/t6pz5zs5h aeu.ark:/13960/t6pz5zs5h.page-000251
#>  3 aeu.ark:/13960/t8qc19m2f aeu.ark:/13960/t8qc19m2f.page-000222
#>  4 chi.096292271            chi.096292271.page-000364           
#>  5 chi.096292336            chi.096292336.page-000368           
#>  6 chi.101607416            chi.101607416.page-001182           
#>  7 chi.63733675             chi.63733675.page-000012            
#>  8 chi.65548487             chi.65548487.page-000438            
#>  9 chi.78011095             chi.78011095.page-000870            
#> 10 chi.78020645             chi.78020645.page-000400            
#> # … with 6,331 more rows
#> # ℹ Use `print(n = ...)` to see more rows

result3 <- workset_builder(name = "Alexis de Tocqueville")
result3
#> # A tibble: 464 × 2
#>    htid                   n
#>    <chr>              <int>
#>  1 mdp.39015079304757  1358
#>  2 mdp.39015008706338  1213
#>  3 mdp.39015058109706   945
#>  4 nyp.33433081795357   910
#>  5 uva.x000469924       909
#>  6 hvd.32044051720316   906
#>  7 coo.31924030454809   904
#>  8 nyp.33433081795266   903
#>  9 ien.35556041207515   901
#> 10 nyp.33433081795381   901
#> # … with 454 more rows
#> # ℹ Use `print(n = ...)` to see more rows
…
browse_htids(result2)

See the article “Topic Models Using Hathi Extracted Features” for more on creating and using worksets for specific analysis purposes.

Downloading extracted feature files for specific Hathi Trust volumes and caching them to specific formats

We can download the Extracted Features file associated with any of these HathiTrust IDs:

tmp <- tempdir() 

extracted_features <- get_hathi_counts(result3$htid[2], dir = tmp)
#> Now caching EF file for mdp.39015008706338

extracted_features
#> # A tibble: 222,275 × 6
#>    htid               token POS   count section  page
#>    <chr>              <chr> <chr> <int> <chr>   <int>
#>  1 mdp.39015008706338 E     UNK       3 body        2
#>  2 mdp.39015008706338 s     UNK       1 body        2
#>  3 mdp.39015008706338 .     UNK       1 body        2
#>  4 mdp.39015008706338 N     UNK       2 body        2
#>  5 mdp.39015008706338 IllE  UNK       1 body        2
#>  6 mdp.39015008706338 ::    UNK       1 body        2
#>  7 mdp.39015008706338 |     UNK       3 body        2
#>  8 mdp.39015008706338 -'    UNK       1 body        2
#>  9 mdp.39015008706338 -     UNK       6 body        2
#> 10 mdp.39015008706338 #     UNK       1 body        2
#> # … with 222,265 more rows
#> # ℹ Use `print(n = ...)` to see more rows
…
Including the page-level metadata for any volume:

page_meta <- get_hathi_page_meta(result3$htid[2], dir = tmp)

page_meta
#> # A tibble: 2,608 × 17
#>    htid       page seq   version token…¹ lineC…² empty…³ sente…⁴ calcu…⁵ secti…⁶
#>    <chr>     <int> <chr> <chr>     <int>   <int>   <int>   <int> <chr>     <int>
#>  1 mdp.3901…     2 0000… 6c4865…      23       9       1      NA <NA>         23
#>  2 mdp.3901…     4 0000… eeacf0…       7       9       4      NA <NA>          7
#>  3 mdp.3901…     5 0000… 43839d…       7       4       1      NA <NA>          7
#>  4 mdp.3901…     7 0000… 4f96d5…       1       2       1      NA <NA>          1
#>  5 mdp.3901…     9 0000… fe4c49…     420      38       1       4 zh          420
#>  6 mdp.3901…    10 0000… 2384c7…      20      11       1       2 en           20
#>  7 mdp.3901…    11 0000… 352c92…      79      28       6      NA br           79
#>  8 mdp.3901…    12 0000… e62077…      26      15       1       1 zh           26
#>  9 mdp.3901…    13 0000… aa0fbc…       8       5       1      NA so            8
#> 10 mdp.3901…    14 0000… 275644…      19       2       0      NA <NA>         19
#> # … with 2,598 more rows, 7 more variables: sectionLineCount <int>,
#> #   sectionEmptyLineCount <int>, sectionSentenceCount <int>,
#> #   sectionCapAlphaSeq <int>, sectionBeginCharCount <chr>,
#> #   sectionEndCharCount <chr>, section <chr>, and abbreviated variable names
#> #   ¹​tokenCount, ²​lineCount, ³​emptyLineCount, ⁴​sentenceCount,
#> #   ⁵​calculatedLanguage, ⁶​sectionTokenCount
#> # ℹ Use `print(n = ...)` to see more rows, and `colnames()` to see all variable names
…
And read them all into memory in one go:

tocqueville_ef <- read_cached_htids(result3[1:5, ], dir = tmpdir)
tocqueville_ef
#> # A tibble: 1,191,761 × 43
#>    htid        token POS   count section  page schem…¹ id    type  dateC…² title
#>    <chr>       <chr> <chr> <int> <chr>   <int> <chr>   <chr> <chr>   <int> <chr>
#>  1 mdp.390150… PLÉI… UNK       1 body        7 https:… http… "[[\…  2.02e7 Oeuv…
#>  2 mdp.390150… BIBL… UNK       1 body        7 https:… http… "[[\…  2.02e7 Oeuv…
#>  3 mdp.390150… LA    UNK       1 body        7 https:… http… "[[\…  2.02e7 Oeuv…
#>  4 mdp.390150… DE    UNK       1 body        7 https:… http… "[[\…  2.02e7 Oeuv…
#>  5 mdp.390150… MÉLO… UNK       1 body        9 https:… http… "[[\…  2.02e7 Oeuv…
#>  6 mdp.390150… FRAN… UNK       3 body        9 https:… http… "[[\…  2.02e7 Oeuv…
#>  7 mdp.390150… FRAN… UNK       2 body        9 https:… http… "[[\…  2.02e7 Oeuv…
#>  8 mdp.390150… PRÉS… UNK       1 body        9 https:… http… "[[\…  2.02e7 Oeuv…
#>  9 mdp.390150… PAR   UNK       3 body        9 https:… http… "[[\…  2.02e7 Oeuv…
#> 10 mdp.390150… INTR… UNK       1 body        9 https:… http… "[[\…  2.02e7 Oeuv…
#> # … with 1,191,751 more rows, 32 more variables: contributor <chr>,
#> #   pubDate <int>, publisher <chr>, pubPlace <chr>, language <chr>,
#> #   accessRights <chr>, accessProfile <chr>, sourceInstitution <chr>,
#> #   mainEntityOfPage <chr>, oclc <chr>, isbn <chr>, genre <chr>,
#> #   enumerationChronology <chr>, typeOfResource <chr>,
#> #   lastRightsUpdateDate <int>, lcc <chr>, lccn <chr>, category <chr>,
#> #   seq <chr>, version <chr>, tokenCount <int>, lineCount <int>, …
#> # ℹ Use `print(n = ...)` to see more rows, and `colnames()` to see all variable names
…
