…
result <- query_bookworm(word = c("democracy", "monarchy"), lims = c(1760, 2000), counttype = c("WordsPerMillion", "TextPercent"))

result
#> # A tibble: 964 x 4
#>    word      date_year value counttype      
#>    <chr>         <int> <dbl> <chr>          
#>  1 democracy      1760 0.382 WordsPerMillion
#>  2 democracy      1760 2.50  TextPercent    
#>  3 democracy      1761 0.300 WordsPerMillion
#>  4 democracy      1761 2.13  TextPercent    
#>  5 democracy      1762 0.352 WordsPerMillion
#>  6 democracy      1762 2.00  TextPercent    
#>  7 democracy      1763 0.488 WordsPerMillion
#>  8 democracy      1763 1.94  TextPercent    
#>  9 democracy      1764 0.663 WordsPerMillion
#> 10 democracy      1764 2.37  TextPercent    
#> # ... with 954 more rows
…
## Creating Worksets of Hathi Trust IDs

We can also create worksets of Hathi Trust IDs for volumes in the
digital library that meet specific criteria, such as all volumes that
mention “liberal” and “democracy” in the same page, or all volumes with
by Alexis de Tocqueville in the “author” field.

``` r
result2 <- workset_builder("liberal democracy", volumes_only = FALSE)

result2
#> # A tibble: 6,193 x 2
#>    htid                     id                                  
#>    <chr>                    <chr>                               
#>  1 aeu.ark:/13960/t05x3k82c aeu.ark:/13960/t05x3k82c.page-000075
#>  2 aeu.ark:/13960/t6pz5zs5h aeu.ark:/13960/t6pz5zs5h.page-000251
#>  3 aeu.ark:/13960/t7pn9qp4g aeu.ark:/13960/t7pn9qp4g.page-000394
#>  4 aeu.ark:/13960/t8qc19m2f aeu.ark:/13960/t8qc19m2f.page-000222
#>  5 chi.090309143            chi.090309143.page-000227           
#>  6 chi.096292271            chi.096292271.page-000333           
#>  7 chi.096292271            chi.096292271.page-000364           
#>  8 chi.096292336            chi.096292336.page-000337           
#>  9 chi.096292336            chi.096292336.page-000368           
#> 10 chi.101607416            chi.101607416.page-001182           
#> # ... with 6,183 more rows
```

``` r
result3 <- workset_builder(name = "Alexis de Tocqueville")
result3
#> # A tibble: 417 x 2
#>    htid                         n
#>    <chr>                    <int>
#>  1 aeu.ark:/13960/t00z8277t   506
#>  2 aeu.ark:/13960/t0ms4jd0t   419
#>  3 aeu.ark:/13960/t0wq0sh3s   455
#>  4 aeu.ark:/13960/t0wq0sh9p   445
#>  5 aeu.ark:/13960/t18k8252g   386
#>  6 aeu.ark:/13960/t23b7448p   649
#>  7 aeu.ark:/13960/t2h717j0v   607
#>  8 aeu.ark:/13960/t2k65c727   543
#>  9 aeu.ark:/13960/t3qv43c3w   516
#> 10 aeu.ark:/13960/t6252fd09   382
#> # ... with 407 more rows
```
…
## Downloading extracted feature files for specific Hathi Trust volumes

We can download the Extracted Features file associated with any of these
HathiTrust IDs:

``` r
tmp <- tempdir() 

extracted_features <- get_hathi_counts(result3$htid[2], dir = tmp)

extracted_features
#> # A tibble: 71,102 x 6
#>    htid                     token POS   count section  page
#>    <chr>                    <chr> <chr> <dbl> <chr>   <dbl>
#>  1 aeu.ark:/13960/t0ms4jd0t II    NNP       1 body        1
#>  2 aeu.ark:/13960/t0ms4jd0t ``    ``        2 body        1
#>  3 aeu.ark:/13960/t0ms4jd0t *     SYM       2 body        1
#>  4 aeu.ark:/13960/t0ms4jd0t 23    CD        1 body        1
#>  5 aeu.ark:/13960/t0ms4jd0t %     NN        4 body        1
#>  6 aeu.ark:/13960/t0ms4jd0t n     NN        1 body        1
#>  7 aeu.ark:/13960/t0ms4jd0t .     .         2 body        1
#>  8 aeu.ark:/13960/t0ms4jd0t 9     CD        1 body        1
#>  9 aeu.ark:/13960/t0ms4jd0t <     JJR       1 body        1
#> 10 aeu.ark:/13960/t0ms4jd0t U     NNP       1 body        1
#> # ... with 71,092 more rows
```
…
Including the page-level metadata for any volume:

``` r
page_meta <- get_hathi_page_meta(result3$htid[2], dir = tmp)

page_meta
#> # A tibble: 419 x 9
#>    htid        seq version     tokenCount lineCount emptyLineCount sentenceCount
#>    <chr>     <dbl> <chr>            <int>     <int>          <int>         <int>
#>  1 aeu.ark:~     1 fe52f777f9~         81        84             43             3
#>  2 aeu.ark:~     2 405716a1c9~         26        21             11             4
#>  3 aeu.ark:~     3 43d6c5e061~        519       243            119            10
#>  4 aeu.ark:~     4 6a9a839662~        475       110             30            14
#>  5 aeu.ark:~     5 d41d8cd98f~          0         0              0             0
#>  6 aeu.ark:~     6 d09c7eb2c7~          6         7              4            NA
#>  7 aeu.ark:~     7 c01b3bec4e~         35         8              4            NA
#>  8 aeu.ark:~     8 3724eff37d~         68        30             14            NA
#>  9 aeu.ark:~     9 7f9e924394~          4         4              2            NA
#> 10 aeu.ark:~    10 34189de832~          8         6              3             1
#> # ... with 409 more rows, and 2 more variables: calculatedLanguage <chr>,
#> #   sectionStats <list>
```
…
