# Bookworm query of single or multiple terms works

    Code
      res1
    Output
      # A tibble: 81 x 4
         word      date_year value counttype      
         <chr>         <int> <dbl> <chr>          
       1 democracy      1920 18.7  WordsPerMillion
       2 democracy      1921 13.4  WordsPerMillion
       3 democracy      1922 11.4  WordsPerMillion
       4 democracy      1923  8.89 WordsPerMillion
       5 democracy      1924 10.2  WordsPerMillion
       6 democracy      1925  8.43 WordsPerMillion
       7 democracy      1926  8.82 WordsPerMillion
       8 democracy      1927  9.24 WordsPerMillion
       9 democracy      1928  8.68 WordsPerMillion
      10 democracy      1929  8.32 WordsPerMillion
      # ... with 71 more rows
      # i Use `print(n = ...)` to see more rows

---

    Code
      res2
    Output
      # A tibble: 162 x 4
         word      date_year value counttype      
         <chr>         <int> <dbl> <chr>          
       1 democracy      1920 18.7  WordsPerMillion
       2 democracy      1921 13.4  WordsPerMillion
       3 democracy      1922 11.4  WordsPerMillion
       4 democracy      1923  8.89 WordsPerMillion
       5 democracy      1924 10.2  WordsPerMillion
       6 democracy      1925  8.43 WordsPerMillion
       7 democracy      1926  8.82 WordsPerMillion
       8 democracy      1927  9.24 WordsPerMillion
       9 democracy      1928  8.68 WordsPerMillion
      10 democracy      1929  8.32 WordsPerMillion
      # ... with 152 more rows
      # i Use `print(n = ...)` to see more rows

---

    Code
      res3
    Output
      # A tibble: 81 x 4
         word              date_year value counttype      
         <chr>                 <int> <dbl> <chr>          
       1 liberal democracy      1920     0 WordsPerMillion
       2 liberal democracy      1921     0 WordsPerMillion
       3 liberal democracy      1922     0 WordsPerMillion
       4 liberal democracy      1923     0 WordsPerMillion
       5 liberal democracy      1924     0 WordsPerMillion
       6 liberal democracy      1925     0 WordsPerMillion
       7 liberal democracy      1926     0 WordsPerMillion
       8 liberal democracy      1927     0 WordsPerMillion
       9 liberal democracy      1928     0 WordsPerMillion
      10 liberal democracy      1929     0 WordsPerMillion
      # ... with 71 more rows
      # i Use `print(n = ...)` to see more rows
…
# Bookworm query for different count types works

    Code
      res1
    Output
      # A tibble: 324 x 4
         word      date_year    value counttype  
         <chr>         <int>    <dbl> <chr>      
       1 democracy      1920  21171   TextCount  
       2 democracy      1920     21.7 TextPercent
       3 democracy      1920  97368   TotalTexts 
       4 democracy      1920 118539   SumTexts   
       5 democracy      1921  18237   TextCount  
       6 democracy      1921     19.9 TextPercent
       7 democracy      1921  91852   TotalTexts 
       8 democracy      1921 110089   SumTexts   
       9 democracy      1922  18985   TextCount  
      10 democracy      1922     18.7 TextPercent
      # ... with 314 more rows
      # i Use `print(n = ...)` to see more rows

---

    Code
      res2
    Output
      # A tibble: 81 x 4
         word      date_year      value counttype 
         <chr>         <int>      <dbl> <chr>     
       1 democracy      1920 0.0000187  WordsRatio
       2 democracy      1921 0.0000134  WordsRatio
       3 democracy      1922 0.0000114  WordsRatio
       4 democracy      1923 0.00000889 WordsRatio
       5 democracy      1924 0.0000102  WordsRatio
       6 democracy      1925 0.00000843 WordsRatio
       7 democracy      1926 0.00000882 WordsRatio
       8 democracy      1927 0.00000924 WordsRatio
       9 democracy      1928 0.00000868 WordsRatio
      10 democracy      1929 0.00000832 WordsRatio
      # ... with 71 more rows
      # i Use `print(n = ...)` to see more rows

---

    Code
      res3
    Output
      # A tibble: 81 x 5
         word      date_year value counttype  compare_to  
         <chr>         <int> <dbl> <chr>      <chr>       
       1 democracy      1920 10.3  WordsRatio dictatorship
       2 democracy      1921  9.21 WordsRatio dictatorship
       3 democracy      1922 11.3  WordsRatio dictatorship
       4 democracy      1923 11.1  WordsRatio dictatorship
       5 democracy      1924 10.0  WordsRatio dictatorship
       6 democracy      1925 11.1  WordsRatio dictatorship
       7 democracy      1926  8.40 WordsRatio dictatorship
       8 democracy      1927  8.63 WordsRatio dictatorship
       9 democracy      1928  8.50 WordsRatio dictatorship
      10 democracy      1929  7.00 WordsRatio dictatorship
      # ... with 71 more rows
      # i Use `print(n = ...)` to see more rows
…
# Bookworm query with method search_results returns a small workset

    Code
      res1
    Output
      # A tibble: 100 x 3
         htid                title                                               url  
         <chr>               <chr>                                               <chr>
       1 txu.059173004270920 "Democracy \"with adjectives\" : conceptual innova~ http~
       2 uc1.b4140275        "Political parties & democracy : incompatible and ~ http~
       3 mdp.39015008407622  "Democracy in the Philippines; address delivered b~ http~
       4 pst.000019619798    "Report to the prime minister on industrial democr~ http~
       5 uiug.30112002893433 "The Birth of democracy : 2,500 years : exhibition~ http~
       6 mdp.39015038527639  "Contemporary democracy : a bibliography of period~ http~
       7 uc1.32106001157780  "The meaning of \"democracy\" as used in European ~ http~
       8 osu.32435070888037  "Democracy in danger /"                             http~
       9 uc1.31822021208566  "Democracy, demography and growth /"                http~
      10 inu.30000067770507  "Partisan democracy and conflicts in African natio~ http~
      # ... with 90 more rows
      # i Use `print(n = ...)` to see more rows
…
# Bookworm query accepts a variety of grouping vars

    Code
      res1
    Output
      # A tibble: 5,951 x 7
         word      languages publication_country value counttype       min_y~1 max_y~2
         <chr>     <chr>     <chr>               <dbl> <chr>             <dbl>   <dbl>
       1 democracy eng       United States       20.4  WordsPerMillion    1920    2000
       2 democracy eng       unknown             24.2  WordsPerMillion    1920    2000
       3 democracy eng       United Kingdom      21.4  WordsPerMillion    1920    2000
       4 democracy eng       Germany              7.49 WordsPerMillion    1920    2000
       5 democracy eng       France              22.9  WordsPerMillion    1920    2000
       6 democracy eng       Japan                5.48 WordsPerMillion    1920    2000
       7 democracy eng       Italy                6.57 WordsPerMillion    1920    2000
       8 democracy eng       India               50.3  WordsPerMillion    1920    2000
       9 democracy eng       China               16.2  WordsPerMillion    1920    2000
      10 democracy eng       Russia (Federation)  9.82 WordsPerMillion    1920    2000
      # ... with 5,941 more rows, and abbreviated variable names 1: min_year,
      #   2: max_year
      # i Use `print(n = ...)` to see more rows
…
---

    Code
      res2
    Output
      # A tibble: 173 x 7
         word      publication_state    fiction_nonfi~1  value count~2 min_y~3 max_y~4
         <chr>     <chr>                <chr>            <dbl> <chr>     <dbl>   <dbl>
       1 democracy N/A                  Not fiction      7.14  WordsP~    1920    2000
       2 democracy N/A                  Fiction          0.489 WordsP~    1920    2000
       3 democracy New York (State)     Not fiction     28.2   WordsP~    1920    2000
       4 democracy New York (State)     Fiction          6.81  WordsP~    1920    2000
       5 democracy England              Not fiction     21.9   WordsP~    1920    2000
       6 democracy England              Fiction          5.76  WordsP~    1920    2000
       7 democracy District of Columbia Not fiction     15.5   WordsP~    1920    2000
       8 democracy District of Columbia Fiction          7.98  WordsP~    1920    2000
       9 democracy Massachusetts        Not fiction     28.2   WordsP~    1920    2000
      10 democracy Massachusetts        Fiction          9.27  WordsP~    1920    2000
      # ... with 163 more rows, and abbreviated variable names 1: fiction_nonfiction,
      #   2: counttype, 3: min_year, 4: max_year
      # i Use `print(n = ...)` to see more rows
…
    WAoAAAACAAQCAAACAwAAAAMTAAAABQAAABAAAAABAAQACQAAAAJObwAAAA0AAAABAP4QCQAA
    ABAAAAABAAQACQAAAApUb3RhbFRleHRzAAAADgAAAAFAmpAAAAAAAAAAAA4AAAABQJ+QAAAA
    AAAAAAQCAAAAAQAEAAkAAAAFbmFtZXMAAAAQAAAABQAEAAkAAAAKaXNfZ292X2RvYwAEAAkA
    AAAFdmFsdWUABAAJAAAACWNvdW50dHlwZQAEAAkAAAAIbWluX3llYXIABAAJAAAACG1heF95
    ZWFyAAAEAgAAAAEABAAJAAAACXJvdy5uYW1lcwAAAA0AAAACgAAAAP////8AAAQCAAAAAQAE
    AAkAAAAFY2xhc3MAAAAQAAAAAwAEAAkAAAAGdGJsX2RmAAQACQAAAAN0YmwABAAJAAAACmRh
    dGEuZnJhbWUAAAD+

---

    Code
      res5
    Output
      # A tibble: 5,008 x 4
         date_year htsource value counttype  
             <int> <chr>    <dbl> <chr>      
       1      1920 AEU        100 TextPercent
       2      1920 AUBRU      100 TextPercent
       3      1920 CHI        100 TextPercent
       4      1920 COO        100 TextPercent
       5      1920 CTU        100 TextPercent
       6      1920 GEU        100 TextPercent
       7      1920 GRI        100 TextPercent
       8      1920 GWLA       100 TextPercent
       9      1920 HVD        100 TextPercent
      10      1920 IAU        100 TextPercent
      # ... with 4,998 more rows
      # i Use `print(n = ...)` to see more rows
…
---

    Code
      res6
    Output
      # A tibble: 5,008 x 4
         date_year `*htsource`   value counttype  
             <int> <chr>         <dbl> <chr>      
       1      1920 AEU         0.873   TextPercent
       2      1920 AUBRU       0.00308 TextPercent
       3      1920 CHI         1.43    TextPercent
       4      1920 COO         5.72    TextPercent
       5      1920 CTU         0.0852  TextPercent
       6      1920 GEU         0.0339  TextPercent
       7      1920 GRI         0.346   TextPercent
       8      1920 GWLA        0.159   TextPercent
       9      1920 HVD         7.47    TextPercent
      10      1920 IAU         1.13    TextPercent
      # ... with 4,998 more rows
      # i Use `print(n = ...)` to see more rows
…
---

    Code
      res3
    Output
      # A tibble: 4,452 x 7
         word      date_year lc_classes genres  htsource    value counttype      
         <chr>         <int> <chr>      <chr>   <chr>       <dbl> <chr>          
       1 democracy      1945 unknown    unknown MIU         25.3  WordsPerMillion
       2 democracy      1945 unknown    unknown MIU      16864    WordCount      
       3 democracy      1945 unknown    unknown NRLF        20.2  WordsPerMillion
       4 democracy      1945 unknown    unknown NRLF     13694    WordCount      
       5 democracy      1945 unknown    unknown HVD          4.22 WordsPerMillion
       6 democracy      1945 unknown    unknown HVD          9    WordCount      
       7 democracy      1945 unknown    unknown UIUC        33.0  WordsPerMillion
       8 democracy      1945 unknown    unknown UIUC      2427    WordCount      
       9 democracy      1945 unknown    unknown UMN         18.4  WordsPerMillion
      10 democracy      1945 unknown    unknown UMN       1143    WordCount      
      # ... with 4,442 more rows
      # i Use `print(n = ...)` to see more rows
…
    WAoAAAACAAQCAAACAwAAAAMTAAAABQAAABAAAAABAAQACQAAACJUb2NxdWV2aWxsZSwgQWxl
    eGlzIGRlLCAxODA1LTE4NTkuAAAADgAAAAFBk5T3hAAAAAAAABAAAAABAAQACQAAAApUb3Rh
    bFdvcmRzAAAADgAAAAFAnCAAAAAAAAAAAA4AAAABQJ9AAAAAAAAAAAQCAAAAAQAEAAkAAAAF
    bmFtZXMAAAAQAAAABQAEAAkAAAAKbWFpbmF1dGhvcgAEAAkAAAAFdmFsdWUABAAJAAAACWNv
    dW50dHlwZQAEAAkAAAAIbWluX3llYXIABAAJAAAACG1heF95ZWFyAAAEAgAAAAEABAAJAAAA
    CXJvdy5uYW1lcwAAAA0AAAACgAAAAP////8AAAQCAAAAAQAEAAkAAAAFY2xhc3MAAAAQAAAA
    AwAEAAkAAAAGdGJsX2RmAAQACQAAAAN0YmwABAAJAAAACmRhdGEuZnJhbWUAAAD+

---

    Code
      res5
    Output
      # A tibble: 88 x 4
         date_year mainauthor                          value counttype 
             <int> <chr>                               <dbl> <chr>     
       1      1833 Tocqueville, Alexis de, 1805-1859. 953604 TotalWords
       2      1835 Tocqueville, Alexis de, 1805-1859. 394134 TotalWords
       3      1836 Tocqueville, Alexis de, 1805-1859. 360543 TotalWords
       4      1837 Tocqueville, Alexis de, 1805-1859. 638699 TotalWords
       5      1838 Tocqueville, Alexis de, 1805-1859. 990188 TotalWords
       6      1839 Tocqueville, Alexis de, 1805-1859. 971113 TotalWords
       7      1840 Tocqueville, Alexis de, 1805-1859. 805088 TotalWords
       8      1841 Tocqueville, Alexis de, 1805-1859. 623387 TotalWords
       9      1842 Tocqueville, Alexis de, 1805-1859.   6770 TotalWords
      10      1843 Tocqueville, Alexis de, 1805-1859. 295060 TotalWords
      # ... with 78 more rows
      # i Use `print(n = ...)` to see more rows
…
    WAoAAAACAAQCAAACAwAAAAMTAAAABAAAAA0AAAACAAAHKQAAB58AAAAQAAAAAgAEAAkAAAAi
    VG9jcXVldmlsbGUsIEFsZXhpcyBkZSwgMTgwNS0xODU5LgAEAAkAAAAiVG9jcXVldmlsbGUs
    IEFsZXhpcyBkZSwgMTgwNS0xODU5LgAAAA4AAAACQS0aCAAAAABBaxfPwAAAAAAAABAAAAAC
    AAQACQAAAApUb3RhbFdvcmRzAAQACQAAAApUb3RhbFdvcmRzAAAEAgAAAAEABAAJAAAABW5h
    bWVzAAAAEAAAAAQABAAJAAAACWRhdGVfeWVhcgAEAAkAAAAKbWFpbmF1dGhvcgAEAAkAAAAF
    dmFsdWUABAAJAAAACWNvdW50dHlwZQAABAIAAAABAAQACQAAAAlyb3cubmFtZXMAAAANAAAA
    AoAAAAD////+AAAEAgAAAAEABAAJAAAABWNsYXNzAAAAEAAAAAMABAAJAAAABnRibF9kZgAE
    AAkAAAADdGJsAAQACQAAAApkYXRhLmZyYW1lAAAA/g==

# Bookworm query can return a specific period

    Code
      res1
    Output
      # A tibble: 1,204 x 4
         word      date_year   value counttype      
         <chr>         <int>   <dbl> <chr>          
       1 democracy      1700   2.71  WordsPerMillion
       2 democracy      1700 424     WordCount      
       3 democracy      1701   0.124 WordsPerMillion
       4 democracy      1701  17     WordCount      
       5 democracy      1702   1.35  WordsPerMillion
       6 democracy      1702 141     WordCount      
       7 democracy      1703   0.769 WordsPerMillion
       8 democracy      1703  80     WordCount      
       9 democracy      1704   0.431 WordsPerMillion
      10 democracy      1704  46     WordCount      
      # ... with 1,194 more rows
      # i Use `print(n = ...)` to see more rows
…
# Bookworm query words for case sensitive and case insensitive search

    Code
      res1
    Output
      # A tibble: 81 x 4
         word      date_year value counttype      
         <chr>         <int> <dbl> <chr>          
       1 democracy      1920 18.7  WordsPerMillion
       2 democracy      1921 13.4  WordsPerMillion
       3 democracy      1922 11.4  WordsPerMillion
       4 democracy      1923  8.89 WordsPerMillion
       5 democracy      1924 10.2  WordsPerMillion
       6 democracy      1925  8.43 WordsPerMillion
       7 democracy      1926  8.82 WordsPerMillion
       8 democracy      1927  9.24 WordsPerMillion
       9 democracy      1928  8.68 WordsPerMillion
      10 democracy      1929  8.32 WordsPerMillion
      # ... with 71 more rows
      # i Use `print(n = ...)` to see more rows
…
---

    Code
      res2
    Output
      # A tibble: 81 x 4
         word      date_year value counttype      
         <chr>         <int> <dbl> <chr>          
       1 democracy      1920 14.1  WordsPerMillion
       2 democracy      1921  9.90 WordsPerMillion
       3 democracy      1922  8.62 WordsPerMillion
       4 democracy      1923  6.60 WordsPerMillion
       5 democracy      1924  7.48 WordsPerMillion
       6 democracy      1925  6.20 WordsPerMillion
       7 democracy      1926  6.58 WordsPerMillion
       8 democracy      1927  6.83 WordsPerMillion
       9 democracy      1928  6.28 WordsPerMillion
      10 democracy      1929  6.16 WordsPerMillion
      # ... with 71 more rows
      # i Use `print(n = ...)` to see more rows
…
