Reads the page-level metadata of a single Hathi Trust Extracted Features file — get_hathi_page_meta • hathiTools
…
    Ben Schmidt

Xavier Marquez

    Examples

# \donttest{
# Download the 1862 version of "Democracy in America" by Tocqueville and get
# its page-level metadata

tmp <- tempdir()

get_hathi_page_meta("mdp.39015001796443", dir = tmp)
#> # A tibble: 1,023 × 17
#>    htid       page seq   version token…¹ lineC…² empty…³ sente…⁴ calcu…⁵ secti…⁶
#>    <chr>     <int> <chr> <chr>     <int>   <int>   <int>   <int> <chr>     <int>
#>  1 mdp.3901…     4 0000… 6d5f66…       1       2       1      NA NA            1
#>  2 mdp.3901…     7 0000… 29c67b…      74      15       0      NA NA           74
#>  3 mdp.3901…     8 0000… 4e3280…      49       8       0       2 en           49
#>  4 mdp.3901…     9 0000… 0d4614…     189      24       0      10 en          189
#>  5 mdp.3901…    10 0000… 6ad989…     274      32       0       8 en            7
#>  6 mdp.3901…    10 0000… 6ad989…     274      32       0       8 en          267
#>  7 mdp.3901…    11 0000… 67d1c6…     287      33       0      10 en            6
#>  8 mdp.3901…    11 0000… 67d1c6…     287      33       0      10 en          281
#>  9 mdp.3901…    12 0000… 8863d4…      80       9       0       4 en            7
#> 10 mdp.3901…    12 0000… 8863d4…      80       9       0       4 en           73
#> # … with 1,013 more rows, 7 more variables: sectionLineCount <int>,
#> #   sectionEmptyLineCount <int>, sectionSentenceCount <int>,
#> #   sectionCapAlphaSeq <int>, sectionBeginCharCount <chr>,
#> #   sectionEndCharCount <chr>, section <chr>, and abbreviated variable names
#> #   ¹​tokenCount, ²​lineCount, ³​emptyLineCount, ⁴​sentenceCount,
#> #   ⁵​calculatedLanguage, ⁶​sectionTokenCount
…
