Queries the Hathi Trust Bookworm Server at https://bookworm.htrc.illinois.edu/develop/ — query_bookworm • hathiTools
…
A tidy tibble whenever possible, with columns for each grouping
parameter, the word (if any), and the counts and counttypes. For method = "search_result", a workset that can be used in browse_htids and
get_workset_meta.

    Author

    Ben Schmidt

    Examples

# \donttest{
query_bookworm(word = c("democracy", "monarchy"), lims = c(1760, 2000),
  counttype = c("WordsPerMillion", "WordCount"))
#> # A tibble: 964 × 4
#>    word      date_year   value counttype      
#>    <chr>         <int>   <dbl> <chr>          
#>  1 democracy      1760   0.382 WordsPerMillion
#>  2 democracy      1760 108     WordCount      
#>  3 democracy      1761   0.253 WordsPerMillion
#>  4 democracy      1761  60     WordCount      
#>  5 democracy      1762   0.332 WordsPerMillion
#>  6 democracy      1762  92     WordCount      
#>  7 democracy      1763   0.455 WordsPerMillion
#>  8 democracy      1763 113     WordCount      
#>  9 democracy      1764   0.593 WordsPerMillion
#> 10 democracy      1764 148     WordCount      
#> # … with 954 more rows

query_bookworm(word = "democracy", groups = c("date_year", "lc_classes"),
  lims = c(1900,2000))
#> # A tibble: 2,222 × 5
#>    word      date_year lc_classes                            value counttype    
#>    <chr>         <int> <chr>                                 <dbl> <chr>        
#>  1 democracy      1900 unknown                               4.44  WordsPerMill…
#>  2 democracy      1900 Language and Literature               4.87  WordsPerMill…
#>  3 democracy      1900 Social Sciences                       7.27  WordsPerMill…
#>  4 democracy      1900 General and Old World History         8.99  WordsPerMill…
#>  5 democracy      1900 Science                               0.166 WordsPerMill…
#>  6 democracy      1900 Philosophy, Psychology, and Religion  4.28  WordsPerMill…
#>  7 democracy      1900 Technology                            0.372 WordsPerMill…
#>  8 democracy      1900 Law                                   0.488 WordsPerMill…
#>  9 democracy      1900 Political Science                    13.1   WordsPerMill…
#> 10 democracy      1900 General Works                        14.6   WordsPerMill…
#> # … with 2,212 more rows

query_bookworm(word = "democracy", groups = "date_year", date_year = "1941",
  lc_classes = "Education", method = "search_results")
#> # A tibble: 100 × 3
#>    htid                      title                                         url  
#>    <chr>                     <chr>                                         <chr>
#>  1 nc01.ark:/13960/t2v41mn4r Teaching democracy in the North Carolina pub… http…
#>  2 mdp.39015062763720        The education of free men in American democr… http…
#>  3 uc1.$b67929               The education of free men in American democr… http…
#>  4 mdp.39015068297905        The education of free men in American democr… http…
#>  5 uc1.$b67873               Pennsylvania bill of rights week. Recommenda… http…
#>  6 mdp.39015035886111        Education in a world of fear,                 http…
#>  7 coo.31924013433044        Education in a world of fear,                 http…
#>  8 mdp.39015031665543        Education and the morale of a free people.    http…
#>  9 uiug.30112108068831       Proceedings of the convention.                http…
#> 10 uc1.$b67928               Education and the morale of a free people.    http…
#> # … with 90 more rows
…
