Read Cached HTIDs — read_cached_htids • hathiTools
…
cache_htids(htids, dir = dir, cache_type = "ef", attempt_rsync = TRUE)
#> 2 HTIDs have already been cached to csv.gz format.
#> All existing JSON files already cached to required formats.
#> # A tibble: 2 × 5
#>   htid               local_loc                            cache…¹ cache…² exists
#>   <chr>              <glue>                               <chr>   <chr>   <lgl> 
#> 1 mdp.39015008706338 /tmp/RtmpdUz0R0/mdp/31003/mdp.39015… csv.gz  ef      TRUE  
#> 2 mdp.39015058109706 /tmp/RtmpdUz0R0/mdp/31500/mdp.39015… csv.gz  ef      TRUE  
#> # … with abbreviated variable names ¹​cache_format, ²​cache_type

# Now read them into memory:

efs <- read_cached_htids(htids, dir = dir)
efs
#> # A tibble: 430,772 × 6
#>    htid               token POS   count section  page
#>    <chr>              <chr> <chr> <int> <chr>   <int>
#>  1 mdp.39015008706338 E     UNK       3 body        2
#>  2 mdp.39015008706338 s     UNK       1 body        2
#>  3 mdp.39015008706338 .     UNK       1 body        2
#>  4 mdp.39015008706338 N     UNK       2 body        2
#>  5 mdp.39015008706338 IllE  UNK       1 body        2
#>  6 mdp.39015008706338 ::    UNK       1 body        2
#>  7 mdp.39015008706338 |     UNK       3 body        2
#>  8 mdp.39015008706338 -'    UNK       1 body        2
#>  9 mdp.39015008706338 -     UNK       6 body        2
#> 10 mdp.39015008706338 #     UNK       1 body        2
#> # … with 430,762 more rows
…
