…
## An example: Topic Models of Alexis de Tocqueville

Suppose you are interested in creating a topic model of Alexis de Tocqueville's "Democracy in America". There are multiple translations of this text, and a topic model trained on one translation may not look like another one; a topic model of different translations and editions is a good way of understanding how these translations and editions vary.

As a starting point, we can download the IDs of all volumes where Alexis the Tocqueville appears as an author in the 15.6 million volumes indexed by the Workset Builder:


```r
library(hathiTools)
library(dplyr)
library(ggplot2)

tocqueville <- workset_builder(name = "Alexis de Tocqueville")
tocqueville
#> # A tibble: 417 x 2
#>    htid                         n
#>    <chr>                    <int>
#>  1 aeu.ark:/13960/t00z8277t   506
#>  2 aeu.ark:/13960/t0ms4jd0t   419
#>  3 aeu.ark:/13960/t0wq0sh3s   455
#>  4 aeu.ark:/13960/t0wq0sh9p   445
#>  5 aeu.ark:/13960/t18k8252g   386
#>  6 aeu.ark:/13960/t23b7448p   649
#>  7 aeu.ark:/13960/t2h717j0v   607
#>  8 aeu.ark:/13960/t2k65c727   543
#>  9 aeu.ark:/13960/t3qv43c3w   516
#> 10 aeu.ark:/13960/t6252fd09   382
#> # ... with 407 more rows
```

The returned `tibble::tibble` contains a column for the Hathi Trust id and a column for how many times the `token` key is mentioned; since we didn't include any tokens to search for in our query, it just returns the number of pages for the volume. There are many options here; for example, we could instead search for the volumes where Tocqueville is an author that mention the word "democracy":


```r
tocqueville2 <- workset_builder("democracy", name = "Alexis de Tocqueville")

tocqueville2
#> # A tibble: 222 x 2
#>    htid                         n
#>    <chr>                    <int>
#>  1 aeu.ark:/13960/t0wq0sh3s    84
#>  2 aeu.ark:/13960/t18k8252g    99
#>  3 aeu.ark:/13960/t23b7448p   177
#>  4 aeu.ark:/13960/t2h717j0v   162
#>  5 aeu.ark:/13960/t3qv43c3w    92
#>  6 aeu.ark:/13960/t6349g80j   103
#>  7 aeu.ark:/13960/t6xw5gz6x   154
#>  8 aeu.ark:/13960/t9p27mv8b   154
#>  9 aeu.ark:/13960/t9r21rt6x    95
#> 10 aeu.ark:/13960/t9x06xb4h   167
#> # ... with 212 more rows
```
This is a smaller workset, since it only includes English tokens, and only volumes by Tocqueville that include the word "democracy" (most of them!).

The resulting data frame also includes a column for the number of times the term "democracy" is mentioned, but not exact pages. Yet it's also possible to get the exact page sequence numbers where the term appears:


```r
tocqueville3 <- workset_builder("democracy", name = "Alexis de Tocqueville", volumes_only = FALSE)

tocqueville3
#> # A tibble: 17,051 x 2
#>    htid                     id                                  
#>    <chr>                    <chr>                               
#>  1 aeu.ark:/13960/t0wq0sh3s aeu.ark:/13960/t0wq0sh3s.page-000033
#>  2 aeu.ark:/13960/t0wq0sh3s aeu.ark:/13960/t0wq0sh3s.page-000344
#>  3 aeu.ark:/13960/t0wq0sh3s aeu.ark:/13960/t0wq0sh3s.page-000303
#>  4 aeu.ark:/13960/t0wq0sh3s aeu.ark:/13960/t0wq0sh3s.page-000124
#>  5 aeu.ark:/13960/t0wq0sh3s aeu.ark:/13960/t0wq0sh3s.page-000203
#>  6 aeu.ark:/13960/t0wq0sh3s aeu.ark:/13960/t0wq0sh3s.page-000114
#>  7 aeu.ark:/13960/t0wq0sh3s aeu.ark:/13960/t0wq0sh3s.page-000324
#>  8 aeu.ark:/13960/t0wq0sh3s aeu.ark:/13960/t0wq0sh3s.page-000113
#>  9 aeu.ark:/13960/t0wq0sh3s aeu.ark:/13960/t0wq0sh3s.page-000249
#> 10 aeu.ark:/13960/t0wq0sh3s aeu.ark:/13960/t0wq0sh3s.page-000018
#> # ... with 17,041 more rows
```

We can browse any of these pages interactively on the Hathi Trust website:

```r
browse_htids(tocqueville3)

```

But for our purposes, we want instead to focus on volumes of Tocqueville published since 1950 (better OCR!) with "Democracy in America" in the title:


```r
tocqueville4 <- workset_builder(name = "Alexis de Tocqueville", pub_date = 1950:2020, title = "Democracy in America")
tocqueville4
#> # A tibble: 23 x 2
#>    htid                   n
#>    <chr>              <int>
#>  1 coo.31924062496165   440
#>  2 ien.35556040838641   858
#>  3 mdp.39015000134430   548
#>  4 mdp.39015000134448   546
#>  5 mdp.39015000134471   490
#>  6 mdp.39015000939747   552
#>  7 mdp.39015001419269   548
#>  8 mdp.39015003967810   520
#>  9 mdp.39015004099282   220
#> 10 mdp.39015010933128   486
#> # ... with 13 more rows
```
…
```r
tocqueville_meta <- get_workset_meta(tocqueville4)
#> Metadata has already been downloaded. Returning cached metadata.
#> Rows: 23 Columns: 36
#> -- Column specification ---------------------------------------------------------------------------------------------------------------------------
#> Delimiter: ","
#> chr  (31): htBibUrl, volumeIdentifier, rightsAttributes, title, genre, pubPlace, typeOfResource, bibliographicFormat, language, imprint, isbn, ...
#> dbl   (3): schemaVersion, pubDate, hathitrustRecordNumber
#> dttm  (2): dateCreated, lastUpdateDate
#> 
#> i Use `spec()` to retrieve the full column specification for this data.
#> i Specify the column types or set `show_col_types = FALSE` to quiet this message.
tocqueville_meta
#> # A tibble: 23 x 36
#>    htBibUrl      schemaVersion volumeIdentifier  rightsAttributes title           genre   pubDate pubPlace typeOfResource bibliographicFo~ language
#>    <chr>                 <dbl> <chr>             <chr>            <chr>           <chr>     <dbl> <chr>    <chr>          <chr>            <chr>   
#>  1 http://catal~           1.3 coo.319240624961~ und              Democracy in A~ "[\"no~    1963 nyu      text           BK               eng     
#>  2 http://catal~           1.3 ien.355560408386~ ic               Democracy in A~ "[\"bi~    2010 inu      text           BK               eng     
#>  3 http://catal~           1.3 mdp.390150001344~ ic               Democracy in A~ "[\"bi~    1954 nyu      text           BK               eng     
#>  4 http://catal~           1.3 mdp.390150001344~ ic               Democracy in A~ "[\"bi~    1954 nyu      text           BK               eng     
#>  5 http://catal~           1.3 mdp.390150001344~ ic               Democracy in A~ "[\"bi~    1954 nyu      text           BK               eng     
#>  6 http://catal~           1.3 mdp.390150009397~ ic               Democracy in A~ "[\"bi~    1954 nyu      text           BK               eng     
#>  7 http://catal~           1.3 mdp.390150014192~ ic               Democracy in A~ "[\"bi~    1954 nyu      text           BK               eng     
#>  8 http://catal~           1.3 mdp.390150039678~ und              Democracy in A~ "[\"no~    1961 nyu      text           BK               eng     
#>  9 http://catal~           1.3 mdp.390150040992~ und              Democracy in A~ "[]"       1962 nyu      text           BK               eng     
#> 10 http://catal~           1.3 mdp.390150109331~ und              Democracy in A~ "[\"bi~    1980 nyu      text           BK               eng     
#> # ... with 13 more rows, and 25 more variables: dateCreated <dttm>, lastUpdateDate <dttm>, imprint <chr>, isbn <chr>, issn <chr>, oclc <chr>,
#> #   lccn <chr>, classification <chr>, handleUrl <chr>, hathitrustRecordNumber <dbl>, sourceInstitutionRecordNumber <chr>, sourceInstitution <chr>,
#> #   accessProfile <chr>, enumerationChronology <chr>, governmentDocument <chr>, names <chr>, issuance <chr>, subjectGenre <chr>,
#> #   subjectTopic <chr>, subjectName <chr>, subjectTitleInfo <chr>, subjectTemporal <chr>, subjectGeographic <chr>, subjectOccupation <chr>,
#> #   subjectCartographics <chr>
```
…
```r
rsync_from_hathi(tocqueville4)
#> 0
#> [1] 0
```

These are JSON files, which are slow to load and parse into data frames. We can cache them to fast-loading CSVs in the "./hathi-ef" directory using the function `cache_htids()`:


```r
cache_htids(tocqueville4)
#> All HTIDs have already been cached to csv.gz format.
#> Returning data frame with file locations.
#> # A tibble: 23 x 3
#>    htid               local_loc                                      exists
#>    <chr>              <chr>                                          <lgl> 
#>  1 coo.31924062496165 ./hathi-ef/coo/32696/coo.31924062496165.csv.gz TRUE  
#>  2 ien.35556040838641 ./hathi-ef/ien/35434/ien.35556040838641.csv.gz TRUE  
#>  3 mdp.39015000134430 ./hathi-ef/mdp/31033/mdp.39015000134430.csv.gz TRUE  
#>  4 mdp.39015000134448 ./hathi-ef/mdp/31034/mdp.39015000134448.csv.gz TRUE  
#>  5 mdp.39015000134471 ./hathi-ef/mdp/31037/mdp.39015000134471.csv.gz TRUE  
#>  6 mdp.39015000939747 ./hathi-ef/mdp/31034/mdp.39015000939747.csv.gz TRUE  
#>  7 mdp.39015001419269 ./hathi-ef/mdp/31016/mdp.39015001419269.csv.gz TRUE  
#>  8 mdp.39015003967810 ./hathi-ef/mdp/31061/mdp.39015003967810.csv.gz TRUE  
#>  9 mdp.39015004099282 ./hathi-ef/mdp/31098/mdp.39015004099282.csv.gz TRUE  
#> 10 mdp.39015010933128 ./hathi-ef/mdp/31132/mdp.39015010933128.csv.gz TRUE  
#> # ... with 13 more rows
```
These are available now in your `./hathi-ef` directory. The convenience function `find_cached_htids()`, when called with a vector of Hathi Trust IDs or a workset, returns a data frame with the Hathi Trust id, the local file path, and whether the file exists or not (i.e., whether it was downloaded successfully and cached).


```r
cached_files <- find_cached_htids(tocqueville4)

cached_files
#> # A tibble: 23 x 3
#>    htid               local_loc                                      exists
#>    <chr>              <chr>                                          <lgl> 
#>  1 coo.31924062496165 ./hathi-ef/coo/32696/coo.31924062496165.csv.gz TRUE  
#>  2 ien.35556040838641 ./hathi-ef/ien/35434/ien.35556040838641.csv.gz TRUE  
#>  3 mdp.39015000134430 ./hathi-ef/mdp/31033/mdp.39015000134430.csv.gz TRUE  
#>  4 mdp.39015000134448 ./hathi-ef/mdp/31034/mdp.39015000134448.csv.gz TRUE  
#>  5 mdp.39015000134471 ./hathi-ef/mdp/31037/mdp.39015000134471.csv.gz TRUE  
#>  6 mdp.39015000939747 ./hathi-ef/mdp/31034/mdp.39015000939747.csv.gz TRUE  
#>  7 mdp.39015001419269 ./hathi-ef/mdp/31016/mdp.39015001419269.csv.gz TRUE  
#>  8 mdp.39015003967810 ./hathi-ef/mdp/31061/mdp.39015003967810.csv.gz TRUE  
#>  9 mdp.39015004099282 ./hathi-ef/mdp/31098/mdp.39015004099282.csv.gz TRUE  
#> 10 mdp.39015010933128 ./hathi-ef/mdp/31132/mdp.39015010933128.csv.gz TRUE  
#> # ... with 13 more rows
```
…
tocqueville_ef
#> # A tibble: 2,812,236 x 6
#>    htid               token     POS   count section  page
#>    <chr>              <chr>     <chr> <dbl> <chr>   <dbl>
#>  1 coo.31924062496165 "\\-\\\\" UNK       1 body        1
#>  2 coo.31924062496165 "-~_-"    UNK       1 body        1
#>  3 coo.31924062496165 "-;-_"    UNK       1 body        1
#>  4 coo.31924062496165 "-.-."    UNK       1 body        1
#>  5 coo.31924062496165 "\\~\\.~" UNK       1 body        1
#>  6 coo.31924062496165 "X"       UNK       1 body        1
#>  7 coo.31924062496165 "/\\"     UNK       1 body        1
#>  8 coo.31924062496165 "__.__"   UNK       1 body        1
#>  9 coo.31924062496165 "s"       UNK       3 body        1
#> 10 coo.31924062496165 "1\\\\\\" UNK       1 body        1
#> # ... with 2,812,226 more rows
```
…
tidy_model <- tidy_model %>%
  left_join(labels)
#> Joining, by = "topic"

tidy_model
#> # A tibble: 244,320 x 46
#>    document  topic   gamma htid  section  page text_id num_tokens prop_page htBibUrl  schemaVersion rightsAttributes title   genre pubDate pubPlace
#>    <chr>     <int>   <dbl> <chr> <chr>   <dbl> <chr>        <int>     <dbl> <chr>             <dbl> <chr>            <chr>   <chr>   <dbl> <chr>   
#>  1 coo.3192~     1 8.13e-4 coo.~ body        6 coo.31~         71    0.0138 http://c~           1.3 und              Democr~ "[\"~    1963 nyu     
#>  2 coo.3192~     1 2.58e-3 coo.~ body       10 coo.31~         31    0.0230 http://c~           1.3 und              Democr~ "[\"~    1963 nyu     
#>  3 coo.3192~     1 6.86e-2 coo.~ body       11 coo.31~         57    0.0253 http://c~           1.3 und              Democr~ "[\"~    1963 nyu     
#>  4 coo.3192~     1 3.48e-3 coo.~ body       12 coo.31~         51    0.0276 http://c~           1.3 und              Democr~ "[\"~    1963 nyu     
#>  5 coo.3192~     1 2.66e-3 coo.~ body       13 coo.31~         27    0.0300 http://c~           1.3 und              Democr~ "[\"~    1963 nyu     
#>  6 coo.3192~     1 2.50e-3 coo.~ body       14 coo.31~         29    0.0323 http://c~           1.3 und              Democr~ "[\"~    1963 nyu     
#>  7 coo.3192~     1 5.51e-4 coo.~ body       15 coo.31~         77    0.0346 http://c~           1.3 und              Democr~ "[\"~    1963 nyu     
#>  8 coo.3192~     1 3.09e-4 coo.~ body       16 coo.31~         87    0.0369 http://c~           1.3 und              Democr~ "[\"~    1963 nyu     
#>  9 coo.3192~     1 6.97e-4 coo.~ body       17 coo.31~         86    0.0392 http://c~           1.3 und              Democr~ "[\"~    1963 nyu     
#> 10 coo.3192~     1 5.96e-4 coo.~ body       18 coo.31~        106    0.0415 http://c~           1.3 und              Democr~ "[\"~    1963 nyu     
#> # ... with 244,310 more rows, and 30 more variables: typeOfResource <chr>, bibliographicFormat <chr>, language <chr>, dateCreated <dttm>,
#> #   lastUpdateDate <dttm>, imprint <chr>, isbn <chr>, issn <chr>, oclc <chr>, lccn <chr>, classification <chr>, handleUrl <chr>,
#> #   hathitrustRecordNumber <dbl>, sourceInstitutionRecordNumber <chr>, sourceInstitution <chr>, accessProfile <chr>, enumerationChronology <chr>,
#> #   governmentDocument <chr>, names <chr>, issuance <chr>, subjectGenre <chr>, subjectTopic <chr>, subjectName <chr>, subjectTitleInfo <chr>,
#> #   subjectTemporal <chr>, subjectGeographic <chr>, subjectOccupation <chr>, subjectCartographics <chr>, editions <chr>, label <chr>
```
…
