An Example Workflow • hathiTools
…
The main feature of this package is the extensive use of caching: sync once with Hathi Trust, cache all files to appropriate formats, and read them in bulk (including their metadata).

This vignette gives an example of this workflow using texts from Jane Austen.

Selecting a sample

We first load the package and create a workset with all the texts that list “Jane Austen” as an author/contributor.

library(tidyverse)
library(hathiTools)

workset <- workset_builder(name = "Jane Austen")
workset
#> # A tibble: 881 × 2
#>    htid                          n
#>    <chr>                     <int>
#>  1 pst.000023140158           1535
#>  2 inu.30000011371634         1425
#>  3 uc2.ark:/13960/t7mp4ws0s   1364
#>  4 mdp.39015066040364         1361
#>  5 mdp.39015004788835         1360
#>  6 dul1.ark:/13960/t5q82jx98  1258
#>  7 pst.000051409333           1109
#>  8 pst.000031098625           1108
#>  9 dul1.ark:/13960/t8x93fx03  1052
#> 10 dul1.ark:/13960/t4th9rm8z  1023
#> # … with 871 more rows
#> # ℹ Use `print(n = ...)` to see more rows
…
This package has opinionated defaults: if you don’t do anything, it will assume you want to rsync and cache all your extracted features files to getOption("hathiTools.ef.dir"), which is just ./hathi-ef.You can, however, set your options differently, either by specifying dir explicitly in rsync_from_hathi(), cache_htids(), find_cached_htids(), and read_cached_htids(), or by setting the hathiTools.ef.dir option directly (i.e., calling options(hathiTools.ef.dir = "your_preferred_dir")).

We’ll use a temporary directory here:

options(hathiTools.ef.dir = tempdir())

rsync_from_hathi(austen_sample)
#> 0
#> [1] 0

Then we cache them to csv and parquet formats simultaneously (just because we can: you can also just cache them to one of these formats):

cache_htids(austen_sample, cache_format = c("csv", "parquet"))
#> # A tibble: 108 × 5
#>    htid                      local_loc                    cache…¹ cache…² exists
#>    <chr>                     <glue>                       <chr>   <chr>   <lgl> 
#>  1 pst.000066449096          C:\Users\marquexa\AppData\L… csv.gz  ef      TRUE  
#>  2 mdp.39015041924641        C:\Users\marquexa\AppData\L… csv.gz  ef      TRUE  
#>  3 mdp.39015005734879        C:\Users\marquexa\AppData\L… csv.gz  ef      TRUE  
#>  4 uiuo.ark:/13960/t4rj54s3j C:\Users\marquexa\AppData\L… csv.gz  ef      TRUE  
#>  5 hvd.32044050792100        C:\Users\marquexa\AppData\L… csv.gz  ef      TRUE  
#>  6 hvd.hwiwg8                C:\Users\marquexa\AppData\L… csv.gz  ef      TRUE  
#>  7 mdp.39015091627573        C:\Users\marquexa\AppData\L… csv.gz  ef      TRUE  
#>  8 uc1.31158008377706        C:\Users\marquexa\AppData\L… csv.gz  ef      TRUE  
#>  9 hvd.32044004573549        C:\Users\marquexa\AppData\L… csv.gz  ef      TRUE  
#> 10 mdp.39015007028700        C:\Users\marquexa\AppData\L… csv.gz  ef      TRUE  
#> # … with 98 more rows, and abbreviated variable names ¹​cache_format,
#> #   ²​cache_type
#> # ℹ Use `print(n = ...)` to see more rows
…
Once cached, we can read this whole corpus into memory very quickly, including all the volume-level and page-level metadata. Here we load from the default cache format, which is given by getOption("hathiTools.cacheformat") and is csv.gz unless explicitly changed:

full_corpus <- read_cached_htids(austen_sample)
full_corpus
#> # A tibble: 1,361,736 × 44
#>    htid        token POS   count section  page schem…¹ id    type  dateC…² title
#>    <chr>       <chr> <chr> <int> <chr>   <int> <chr>   <chr> <chr>   <int> <chr>
#>  1 pst.000066… Clas… NNS       1 body        5 https:… http… "[[\…  2.02e7 Emma…
#>  2 pst.000066… .     .         1 body        5 https:… http… "[[\…  2.02e7 Emma…
#>  3 pst.000066… BORD… NNS       1 body        5 https:… http… "[[\…  2.02e7 Emma…
#>  4 pst.000066… Plea… UH        1 body        8 https:… http… "[[\…  2.02e7 Emma…
#>  5 pst.000066… writ… VBG       1 body        8 https:… http… "[[\…  2.02e7 Emma…
#>  6 pst.000066… Brot… NNPS      1 body        8 https:… http… "[[\…  2.02e7 Emma…
#>  7 pst.000066… rese… VBN       1 body        8 https:… http… "[[\…  2.02e7 Emma…
#>  8 pst.000066… any   DT        3 body        8 https:… http… "[[\…  2.02e7 Emma…
#>  9 pst.000066… LLC   NNP       1 body        8 https:… http… "[[\…  2.02e7 Emma…
#> 10 pst.000066… this  DT        1 body        8 https:… http… "[[\…  2.02e7 Emma…
#> # … with 1,361,726 more rows, 33 more variables: alternateTitle <chr>,
#> #   contributor <chr>, pubDate <int>, publisher <chr>, pubPlace <chr>,
#> #   language <chr>, accessRights <chr>, accessProfile <chr>,
#> #   sourceInstitution <chr>, mainEntityOfPage <chr>, oclc <chr>, isbn <chr>,
#> #   genre <chr>, typeOfResource <chr>, lastRightsUpdateDate <int>,
#> #   enumerationChronology <chr>, lcc <chr>, lccn <chr>, category <chr>,
#> #   seq <chr>, version <chr>, tokenCount <int>, lineCount <int>, …
#> # ℹ Use `print(n = ...)` to see more rows, and `colnames()` to see all variable names

You can also load only particular bits of the data. For example, if you only want to load the extracted features files, volume-level metadata, and page-level metadata, you can do this:

read_cached_htids(austen_sample, cache_type = "ef")
#> # A tibble: 1,361,736 × 6
#>    htid             token    POS   count section  page
#>    <chr>            <chr>    <chr> <int> <chr>   <int>
#>  1 pst.000066449096 Classics NNS       1 body        5
#>  2 pst.000066449096 .        .         1 body        5
#>  3 pst.000066449096 BORDERS  NNS       1 body        5
#>  4 pst.000066449096 Please   UH        1 body        8
#>  5 pst.000066449096 writing  VBG       1 body        8
#>  6 pst.000066449096 Brothers NNPS      1 body        8
#>  7 pst.000066449096 reserved VBN       1 body        8
#>  8 pst.000066449096 any      DT        3 body        8
#>  9 pst.000066449096 LLC      NNP       1 body        8
#> 10 pst.000066449096 this     DT        1 body        8
#> # … with 1,361,726 more rows
#> # ℹ Use `print(n = ...)` to see more rows
…
read_cached_htids(austen_sample, cache_type = "pagemeta")
#> # A tibble: 13,322 × 17
#>    htid       page seq   version token…¹ lineC…² empty…³ sente…⁴ calcu…⁵ secti…⁶
#>    <chr>     <int> <chr> <chr>     <int>   <int>   <int>   <int> <chr>     <int>
#>  1 pst.0000…     5 0000… 542549…       3       2       0       2 en            3
#>  2 pst.0000…     8 0000… 116e6b…     128      19       0       5 en          128
#>  3 pst.0000…     9 0000… 281ad5…       3       2       0      NA so            3
#>  4 pst.0000…    11 0000… 9e6f16…       1       1       0      NA <NA>          1
#>  5 pst.0000…    13 0000… 97a337…     236      21       1       7 en          235
#>  6 pst.0000…    13 0000… 97a337…     236      21       1       7 en            1
#>  7 pst.0000…    14 0000… eecf06…     490      37       0      19 en            4
#>  8 pst.0000…    14 0000… eecf06…     490      37       0      19 en          485
#>  9 pst.0000…    14 0000… eecf06…     490      37       0      19 en            1
#> 10 pst.0000…    15 0000… 49951b…     494      37       0      14 en          493
#> # … with 13,312 more rows, 7 more variables: sectionLineCount <int>,
#> #   sectionEmptyLineCount <int>, sectionSentenceCount <int>,
#> #   sectionCapAlphaSeq <int>, sectionBeginCharCount <chr>,
#> #   sectionEndCharCount <chr>, section <chr>, and abbreviated variable names
#> #   ¹​tokenCount, ²​lineCount, ³​emptyLineCount, ⁴​sentenceCount,
#> #   ⁵​calculatedLanguage, ⁶​sectionTokenCount
#> # ℹ Use `print(n = ...)` to see more rows, and `colnames()` to see all variable names
…
This enables some very fast aggregations without having to load all the data in memory. For a small corpus like this this does not make a difference (we can put the entire corpus in memory), but in principle one can do operations like this with thousands of files:

austen_dataset %>%
  count(token, wt=count, sort = TRUE) %>%
  collect()
#> # A tibble: 28,833 × 2
#>    token      n
#>    <chr>  <int>
#>  1 ,     167916
#>  2 .      90404
#>  3 the    73470
#>  4 to     68624
#>  5 and    63718
#>  6 of     63020
#>  7 a      38757
#>  8 her    37051
#>  9 I      36750
#> 10 was    32556
#> # … with 28,823 more rows
#> # ℹ Use `print(n = ...)` to see more rows
…
