Topic Modeling using the Hathi Trust Extracted Features Files • hathiTools
…
Alexis de Tocqueville’s Democracy in America is a very influential text. Ever since its original publication in 1835, it has been translated into multiple languages and republished many times. In this vignette, we use the Hathi Trust extracted features files of its many editions to train a page-level topic model that can help visualize how these translations and editions vary.

Selecting the sample

As a starting point, we can download the IDs of all volumes where Alexis the Tocqueville appears as an author in the 17 million volumes indexed by the Hathi Trust Workset Builder:

library(hathiTools)
library(tidyverse)
library(jsonlite) # For processing some results
library(stm)

tocqueville <- workset_builder(name = "Alexis de Tocqueville")
tocqueville
#> # A tibble: 464 × 2
#>    htid                   n
#>    <chr>              <int>
#>  1 mdp.39015079304757  1358
#>  2 mdp.39015008706338  1213
#>  3 mdp.39015058109706   945
#>  4 nyp.33433081795357   910
#>  5 uva.x000469924       909
#>  6 hvd.32044051720316   906
#>  7 coo.31924030454809   904
#>  8 nyp.33433081795266   903
#>  9 ien.35556041207515   901
#> 10 nyp.33433081795381   901
#> # … with 454 more rows
#> # ℹ Use `print(n = ...)` to see more rows
…
De la démocratie en Amérique … et augmentée … d’un examen comparatif de la démocratie aux États-Unis et en Suisse.
1848
Pagnerre
Tocqueville, Alexis de, 1805-1859.
fre

(Note that you normally won’t want to be using get_workset_meta() for more than 100 or so volumes - it will take a long time; best to cache the files locally and then extract their metadata, as explained in [the example workflow vignette](vignette("example_workflow"))).

The function workset_builder() by default returns a data frame with column for the Hathi Trust id and a column for how many times the token key is mentioned; since we didn’t include any tokens to search for in our query, the function just returned the number of pages in each volume. If we instead search for the volumes where Tocqueville is an author that also mention the word “democracy”, the function returns both the volume id and the number of pages that contain the term.

tocqueville2 <- workset_builder("democracy", name = "Alexis de Tocqueville")

tocqueville2
#> # A tibble: 239 × 2
#>    htid                    n
#>    <chr>               <int>
#>  1 uc1.b3987464          239
#>  2 mdp.39015058109706    214
#>  3 uva.x000469924        201
#>  4 uva.x001179573        201
#>  5 hvd.32044051720316    200
#>  6 nyp.33433081795266    200
#>  7 nyp.33433081795357    200
#>  8 nyp.33433081795381    200
#>  9 umn.319510019923684   200
#> 10 hvd.hn2ul5            199
#> # … with 229 more rows
#> # ℹ Use `print(n = ...)` to see more rows

This is a smaller workset, since it only includes English tokens, and only volumes by Tocqueville that include the word “democracy” (most of them!). It’s also possible to get the exact page sequence numbers where the term appears:

tocqueville3 <- workset_builder("democracy", name = "Alexis de Tocqueville", volumes_only = FALSE)

tocqueville3
#> # A tibble: 17,278 × 2
#>    htid                     id                                  
#>    <chr>                    <chr>                               
#>  1 aeu.ark:/13960/t0wq0sh3s aeu.ark:/13960/t0wq0sh3s.page-000118
#>  2 aeu.ark:/13960/t0wq0sh3s aeu.ark:/13960/t0wq0sh3s.page-000205
#>  3 aeu.ark:/13960/t0wq0sh3s aeu.ark:/13960/t0wq0sh3s.page-000083
#>  4 aeu.ark:/13960/t0wq0sh3s aeu.ark:/13960/t0wq0sh3s.page-000199
#>  5 aeu.ark:/13960/t0wq0sh3s aeu.ark:/13960/t0wq0sh3s.page-000249
#>  6 aeu.ark:/13960/t0wq0sh3s aeu.ark:/13960/t0wq0sh3s.page-000192
#>  7 aeu.ark:/13960/t0wq0sh3s aeu.ark:/13960/t0wq0sh3s.page-000102
#>  8 aeu.ark:/13960/t0wq0sh3s aeu.ark:/13960/t0wq0sh3s.page-000124
#>  9 aeu.ark:/13960/t0wq0sh3s aeu.ark:/13960/t0wq0sh3s.page-000149
#> 10 aeu.ark:/13960/t0wq0sh3s aeu.ark:/13960/t0wq0sh3s.page-000247
#> # … with 17,268 more rows
#> # ℹ Use `print(n = ...)` to see more rows

We can browse any of these pages interactively on the Hathi Trust website, just to get a sense of what they look like. (Most will be in the public domain; note that the page sequences are zero-indexed, so they are one less than the actual page shown on the Hathi Trust website).

browse_htids(tocqueville3)

For our topic modeling exercise, we will focus on volumes of Tocqueville published since 1950 (better OCR!) with “Democracy in America” in the title.

tocqueville4 <- workset_builder(name = "Alexis de Tocqueville", pub_date = 1950:2020, title = "Democracy in America")
tocqueville4
#> # A tibble: 27 × 2
#>    htid                   n
#>    <chr>              <int>
#>  1 mdp.39015058109706   945
#>  2 ien.35556040838641   845
#>  3 uc1.b3987464         781
#>  4 mdp.39015059568017   667
#>  5 uva.x000918570       627
#>  6 uva.x000843187       622
#>  7 uc1.32106006021593   610
#>  8 uc1.31158011108353   589
#>  9 uc1.32106009996031   566
#> 10 mdp.39015001795965   563
#> # … with 17 more rows
#> # ℹ Use `print(n = ...)` to see more rows

In principle we can download their full metadata using the function get_workset_meta(), though the SOLR service hasn’t been working recently. (Also, it’s a slow download, so use with care if you have a lot of Hathi Trust ids!).

tocqueville_meta <- get_workset_meta(tocqueville4)
tocqueville_meta
#> # A tibble: 27 × 16
#>    htid      acces…¹ acces…² url   title dateC…³ lastR…⁴ pubDate schem…⁵ typeO…⁶
#>    <chr>     <chr>   <chr>   <chr> <chr>   <dbl>   <dbl>   <dbl> <chr>   <chr>  
#>  1 mdp.3901… google  ic      http… Demo…  2.02e7  2.02e7    2004 https:… http:/…
#>  2 ien.3555… google  ic      http… Demo…  2.02e7  2.02e7    2010 https:… http:/…
#>  3 uc1.b398… google  ic      http… Demo…  2.02e7  2.02e7    1969 https:… http:/…
#>  4 mdp.3901… google  ic      http… Demo…  2.02e7  2.02e7    1981 https:… http:/…
#>  5 uva.x000… google  ic      http… Demo…  2.02e7  2.02e7    1952 https:… http:/…
#>  6 uva.x000… google  ic      http… Demo…  2.02e7  2.02e7    1959 https:… http:/…
#>  7 uc1.3210… google  und     http… Demo…  2.02e7  2.02e7    1961 https:… http:/…
#>  8 uc1.3115… google  pdus    http… Demo…  2.02e7  2.02e7    1986 https:… http:/…
#>  9 uc1.3210… google  ic      http… Demo…  2.02e7  2.02e7    1980 https:… http:/…
#> 10 mdp.3901… google  ic      http… Demo…  2.02e7  2.02e7    1980 https:… http:/…
#> # … with 17 more rows, 6 more variables: language <chr>, oclc <dbl>,
#> #   genre <chr>, contributor <chr>, publisher <chr>, pubPlace <chr>, and
#> #   abbreviated variable names ¹​accessProfile, ²​accessRights, ³​dateCreated,
#> #   ⁴​lastRightsUpdateDate, ⁵​schemaVersion, ⁶​typeOfResource
#> # ℹ Use `print(n = ...)` to see more rows, and `colnames()` to see all variable names
…
We first download the “extracted features” files for these texts through the Hathi Trust rsync server. The rsync_from_hathi() function attempts to do this automatically (to the "./hathi-ef" directory by default, which will be created if it doesn’t exist; this is the default option ). This function requires that your system has access to rsync. (In Windows, the easiest way to do this is to install the Windows Subsystem for Linux; rsync should come already installed in most Mac and Linux machines).

# The current directory for caching:
getOption("hathiTools.ef.dir")
#> [1] "./hathi-ef"

rsync_from_hathi(tocqueville4)
#> 0
#> [1] 0

The downloaded files are in JSON format, which is slow to load and parse into data frames. We can cache these files to fast-loading CSVs (or to other formats, including Feather or Parquet formats from the {arrow} package) in the "./hathi-ef" directory also using the function cache_htids():

cached_files <- cache_htids(tocqueville4)
cached_files
#> # A tibble: 81 × 5
#>    htid               local_loc                           cache…¹ cache…² exists
#>    <chr>              <glue>                              <chr>   <chr>   <lgl> 
#>  1 mdp.39015058109706 ./hathi-ef/mdp/31500/mdp.390150581… csv.gz  ef      TRUE  
#>  2 ien.35556040838641 ./hathi-ef/ien/35434/ien.355560408… csv.gz  ef      TRUE  
#>  3 uc1.b3987464       ./hathi-ef/uc1/b86/uc1.b3987464.cs… csv.gz  ef      TRUE  
#>  4 mdp.39015059568017 ./hathi-ef/mdp/31561/mdp.390150595… csv.gz  ef      TRUE  
#>  5 uva.x000918570     ./hathi-ef/uva/x080/uva.x000918570… csv.gz  ef      TRUE  
#>  6 uva.x000843187     ./hathi-ef/uva/x037/uva.x000843187… csv.gz  ef      TRUE  
#>  7 uc1.32106006021593 ./hathi-ef/uc1/30029/uc1.321060060… csv.gz  ef      TRUE  
#>  8 uc1.31158011108353 ./hathi-ef/uc1/35105/uc1.311580111… csv.gz  ef      TRUE  
#>  9 uc1.32106009996031 ./hathi-ef/uc1/30093/uc1.321060099… csv.gz  ef      TRUE  
#> 10 mdp.39015001795965 ./hathi-ef/mdp/31096/mdp.390150017… csv.gz  ef      TRUE  
#> # … with 71 more rows, and abbreviated variable names ¹​cache_format,
#> #   ²​cache_type
#> # ℹ Use `print(n = ...)` to see more rows

The convenience function find_cached_htids(), when called with a vector of Hathi Trust IDs or a workset, returns a data frame with the Hathi Trust id, the local file paths of the cached EF files, and whether each file exists or not (i.e., whether it was downloaded successfully and cached).

cached_files <- find_cached_htids(tocqueville4)

cached_files
#> # A tibble: 81 × 5
#>    htid               local_loc                           cache…¹ cache…² exists
#>    <chr>              <glue>                              <chr>   <chr>   <lgl> 
#>  1 mdp.39015058109706 ./hathi-ef/mdp/31500/mdp.390150581… csv.gz  ef      TRUE  
#>  2 ien.35556040838641 ./hathi-ef/ien/35434/ien.355560408… csv.gz  ef      TRUE  
#>  3 uc1.b3987464       ./hathi-ef/uc1/b86/uc1.b3987464.cs… csv.gz  ef      TRUE  
#>  4 mdp.39015059568017 ./hathi-ef/mdp/31561/mdp.390150595… csv.gz  ef      TRUE  
#>  5 uva.x000918570     ./hathi-ef/uva/x080/uva.x000918570… csv.gz  ef      TRUE  
#>  6 uva.x000843187     ./hathi-ef/uva/x037/uva.x000843187… csv.gz  ef      TRUE  
#>  7 uc1.32106006021593 ./hathi-ef/uc1/30029/uc1.321060060… csv.gz  ef      TRUE  
#>  8 uc1.31158011108353 ./hathi-ef/uc1/35105/uc1.311580111… csv.gz  ef      TRUE  
#>  9 uc1.32106009996031 ./hathi-ef/uc1/30093/uc1.321060099… csv.gz  ef      TRUE  
#> 10 mdp.39015001795965 ./hathi-ef/mdp/31096/mdp.390150017… csv.gz  ef      TRUE  
#> # … with 71 more rows, and abbreviated variable names ¹​cache_format,
#> #   ²​cache_type
#> # ℹ Use `print(n = ...)` to see more rows

These files can now be loaded into R very quickly:

tocqueville_ef <- read_cached_htids(tocqueville4)
tocqueville_ef
#> # A tibble: 3,318,779 × 44
#>    htid        token POS   count section  page schem…¹ id    type  dateC…² title
#>    <chr>       <chr> <chr> <int> <chr>   <int> <chr>   <chr> <chr>   <int> <chr>
#>  1 mdp.390150… ALEX… UNK       1 body        5 https:… http… "[[\…  2.02e7 Demo…
#>  2 mdp.390150… TOCQ… UNK       1 body        5 https:… http… "[[\…  2.02e7 Demo…
#>  3 mdp.390150… DE    UNK       1 body        5 https:… http… "[[\…  2.02e7 Demo…
#>  4 mdp.390150… IN    IN        1 body        9 https:… http… "[[\…  2.02e7 Demo…
#>  5 mdp.390150… Gold… NNP       1 body        9 https:… http… "[[\…  2.02e7 Demo…
#>  6 mdp.390150… *     SYM       4 body        9 https:… http… "[[\…  2.02e7 Demo…
#>  7 mdp.390150… Arth… NNP       1 body        9 https:… http… "[[\…  2.02e7 Demo…
#>  8 mdp.390150… DEMO… NNP       1 body        9 https:… http… "[[\…  2.02e7 Demo…
#>  9 mdp.390150… THE   DT        1 body        9 https:… http… "[[\…  2.02e7 Demo…
#> 10 mdp.390150… Tran… VBN       1 body        9 https:… http… "[[\…  2.02e7 Demo…
#> # … with 3,318,769 more rows, 33 more variables: contributor <chr>,
#> #   pubDate <int>, publisher <chr>, pubPlace <chr>, language <chr>,
#> #   accessRights <chr>, accessProfile <chr>, sourceInstitution <chr>,
#> #   mainEntityOfPage <chr>, lcc <chr>, lccn <chr>, oclc <chr>, category <chr>,
#> #   isbn <chr>, genre <chr>, typeOfResource <chr>, lastRightsUpdateDate <int>,
#> #   enumerationChronology <chr>, alternateTitle <lgl>, seq <chr>,
#> #   version <chr>, tokenCount <int>, lineCount <int>, emptyLineCount <int>, …
#> # ℹ Use `print(n = ...)` to see more rows, and `colnames()` to see all variable names

Note that cache_htids() automatically caches not only the extracted features file, but also the volume-level and page-level metadata; the function read_cached_htids() by default adds both of these forms of metadata to your data frame. But we can also extract the page-level and volume-level metadata separately:

tocqueville_ef <- read_cached_htids(tocqueville4, cache_type = "ef")
tocqueville_meta <- read_cached_htids(tocqueville4, cache_type = "meta")
tocqueville_pagemeta <- read_cached_htids(tocqueville4, cache_type = "pagemeta")

tocqueville_ef
#> # A tibble: 3,318,779 × 6
#>    htid               token       POS   count section  page
#>    <chr>              <chr>       <chr> <int> <chr>   <int>
#>  1 mdp.39015058109706 ALEXIS      UNK       1 body        5
#>  2 mdp.39015058109706 TOCQUEVILLE UNK       1 body        5
#>  3 mdp.39015058109706 DE          UNK       1 body        5
#>  4 mdp.39015058109706 IN          IN        1 body        9
#>  5 mdp.39015058109706 Goldhammer  NNP       1 body        9
#>  6 mdp.39015058109706 *           SYM       4 body        9
#>  7 mdp.39015058109706 Arthur      NNP       1 body        9
#>  8 mdp.39015058109706 DEMOCRACY   NNP       1 body        9
#>  9 mdp.39015058109706 THE         DT        1 body        9
#> 10 mdp.39015058109706 Translated  VBN       1 body        9
#> # … with 3,318,769 more rows
#> # ℹ Use `print(n = ...)` to see more rows
tocqueville_meta
#> # A tibble: 27 × 25
#>    htid        schem…¹ id    type  dateC…² title contr…³ pubDate publi…⁴ pubPl…⁵
#>    <chr>       <chr>   <chr> <chr>   <int> <chr> <chr>     <int> <chr>   <chr>  
#>  1 mdp.390150… https:… http… "[[\…  2.02e7 Demo… "[{\"i…    2004 "[{\"i… "{\"id…
#>  2 ien.355560… https:… http… "[[\…  2.02e7 Demo… "[{\"i…    2010 "{\"id… "{\"id…
#>  3 uc1.b39874… https:… http… "[[\…  2.02e7 Demo… "[{\"i…    1969 "{\"id… "{\"id…
#>  4 mdp.390150… https:… http… "[[\…  2.02e7 Demo… "[{\"i…    1981 "{\"id… "{\"id…
#>  5 uva.x00091… https:… http… "[[\…  2.02e7 Demo… "[{\"i…    1952 "{\"id… "{\"id…
#>  6 uva.x00084… https:… http… "[[\…  2.02e7 Demo… "[{\"i…    1959 "{\"id… "{\"id…
#>  7 uc1.321060… https:… http… "[[\…  2.02e7 Demo… "{\"id…    1961 "{\"id… "{\"id…
#>  8 uc1.311580… https:… http… "[[\…  2.02e7 Demo… "[{\"i…    1986 "{\"id… "{\"id…
#>  9 uc1.321060… https:… http… "[[\…  2.02e7 Demo… "[{\"i…    1980 "{\"id… "{\"id…
#> 10 mdp.390150… https:… http… "[[\…  2.02e7 Demo… "[{\"i…    1980 "{\"id… "{\"id…
#> # … with 17 more rows, 15 more variables: language <chr>, accessRights <chr>,
#> #   accessProfile <chr>, sourceInstitution <chr>, mainEntityOfPage <chr>,
#> #   lcc <chr>, lccn <chr>, oclc <chr>, category <chr>, isbn <chr>, genre <chr>,
#> #   typeOfResource <chr>, lastRightsUpdateDate <int>,
#> #   enumerationChronology <chr>, alternateTitle <lgl>, and abbreviated variable
#> #   names ¹​schemaVersion, ²​dateCreated, ³​contributor, ⁴​publisher, ⁵​pubPlace
#> # ℹ Use `print(n = ...)` to see more rows, and `colnames()` to see all variable names
tocqueville_pagemeta
#> # A tibble: 28,492 × 17
#>    htid       page seq   version token…¹ lineC…² empty…³ sente…⁴ calcu…⁵ secti…⁶
#>    <chr>     <int> <chr> <chr>     <int>   <int>   <int>   <int> <chr>     <int>
#>  1 mdp.3901…     5 0000… af2e37…       3       1       0      NA so            3
#>  2 mdp.3901…     9 0000… 6cb0ed…      20       8       0       1 en           20
#>  3 mdp.3901…    10 0000… 12a1f3…     139      20       0       6 en          139
#>  4 mdp.3901…    11 0000… 7338b1…      20       5       0       3 en           20
#>  5 mdp.3901…    13 0000… 8a3246…      52       9       0       1 en           52
#>  6 mdp.3901…    15 0000… 7ca902…     272      33       0      16 en            1
#>  7 mdp.3901…    15 0000… 7ca902…     272      33       0      16 en          271
#>  8 mdp.3901…    16 0000… ce432e…     261      33       0       8 en          261
#>  9 mdp.3901…    17 0000… c7c8d5…     224      35       0       2 en            2
#> 10 mdp.3901…    17 0000… c7c8d5…     224      35       0       2 en          222
#> # … with 28,482 more rows, 7 more variables: sectionLineCount <int>,
#> #   sectionEmptyLineCount <int>, sectionSentenceCount <int>,
#> #   sectionCapAlphaSeq <int>, sectionBeginCharCount <chr>,
#> #   sectionEndCharCount <chr>, section <chr>, and abbreviated variable names
#> #   ¹​tokenCount, ²​lineCount, ³​emptyLineCount, ⁴​sentenceCount,
#> #   ⁵​calculatedLanguage, ⁶​sectionTokenCount
#> # ℹ Use `print(n = ...)` to see more rows, and `colnames()` to see all variable names
…
tocqueville_meta %>%
  select(htid, pubDate, edition, volume)
#> # A tibble: 27 × 4
#>    htid               pubDate edition                               volume
#>    <chr>                <int> <chr>                                  <dbl>
#>  1 mdp.39015058109706    2004 "Library of America (Goldhammer) "        NA
#>  2 ien.35556040838641    2010 "Liberty Fund (Schleifer, Nolla) v.1"      1
#>  3 uc1.b3987464          1969 "Doubleday (Mayer) "                      NA
#>  4 mdp.39015059568017    1981 "Modern Library (Bender) "                NA
#>  5 uva.x000918570        1952 "Oxford (Commager, Reeve) "               NA
#>  6 uva.x000843187        1959 "Oxford (Commager, Reeve) "               NA
#>  7 uc1.32106006021593    1961 "Schocken  v.1"                            1
#>  8 uc1.31158011108353    1986 "Sever & Francis (Reeve) v.1"              1
#>  9 uc1.32106009996031    1980 "Knopf (Bowen, Reeve, Bradley) v.1"        1
#> 10 mdp.39015001795965    1980 "Knopf (Bowen, Reeve, Bradley) v.1"        1
#> # … with 17 more rows
#> # ℹ Use `print(n = ...)` to see more rows
…
tidy_model <- tidy_model %>%
  left_join(labels)

tidy_model
#> # A tibble: 288,840 × 51
#>    docum…¹ topic   gamma htid   page text_id num_t…² prop_…³ schem…⁴ id    type 
#>    <chr>   <int>   <dbl> <chr> <int> <chr>     <int>   <dbl> <chr>   <chr> <chr>
#>  1 mdp.39…     1 0.0746  mdp.…    10 mdp.39…      48  0.0104 https:… http… "[[\…
#>  2 mdp.39…     1 0.00442 mdp.…    13 mdp.39…      17  0.0135 https:… http… "[[\…
#>  3 mdp.39…     1 0.0330  mdp.…    15 mdp.39…      46  0.0156 https:… http… "[[\…
#>  4 mdp.39…     1 0.0862  mdp.…    16 mdp.39…      60  0.0166 https:… http… "[[\…
#>  5 mdp.39…     1 0.00436 mdp.…    17 mdp.39…      53  0.0176 https:… http… "[[\…
#>  6 mdp.39…     1 0.00726 mdp.…    18 mdp.39…      50  0.0187 https:… http… "[[\…
#>  7 mdp.39…     1 0.0107  mdp.…    19 mdp.39…      55  0.0197 https:… http… "[[\…
#>  8 mdp.39…     1 0.00459 mdp.…    20 mdp.39…      56  0.0207 https:… http… "[[\…
#>  9 mdp.39…     1 0.00812 mdp.…    23 mdp.39…      64  0.0239 https:… http… "[[\…
#> 10 mdp.39…     1 0.0117  mdp.…    24 mdp.39…      90  0.0249 https:… http… "[[\…
#> # … with 288,830 more rows, 40 more variables: dateCreated <int>, title <chr>,
#> #   contributor <chr>, pubDate <int>, publisher <chr>, pubPlace <chr>,
#> #   language <chr>, accessRights <chr>, accessProfile <chr>,
#> #   sourceInstitution <chr>, mainEntityOfPage <chr>, lcc <chr>, lccn <chr>,
#> #   oclc <chr>, category <chr>, isbn <chr>, genre <chr>, typeOfResource <chr>,
#> #   lastRightsUpdateDate <int>, enumerationChronology <chr>,
#> #   alternateTitle <lgl>, editor <chr>, short_publisher <chr>, edition <chr>, …
#> # ℹ Use `print(n = ...)` to see more rows, and `colnames()` to see all variable names
…
