Using the Hathi Trust Bookworm Tool • hathiTools
…
library(hathiTools)
library(tidyverse)
library(slider) # For moving averages

res <- query_bookworm(c("democracy", "dictatorship", "monarchy",
                        "aristocracy", "oligarchy", "tyranny",
                        "autocracy"),
                      counttype = c("WordsPerMillion"),
                      lims = c(1700, 2020))

This results in a nice, tidy tibble:

res
#> # A tibble: 2,247 × 4
#>    word      date_year  value counttype      
#>    <chr>         <int>  <dbl> <chr>          
#>  1 democracy      1700 2.70   WordsPerMillion
#>  2 democracy      1701 0.123  WordsPerMillion
#>  3 democracy      1702 1.34   WordsPerMillion
#>  4 democracy      1703 0.765  WordsPerMillion
#>  5 democracy      1704 0.428  WordsPerMillion
#>  6 democracy      1705 0.0989 WordsPerMillion
#>  7 democracy      1706 0.163  WordsPerMillion
#>  8 democracy      1707 0.446  WordsPerMillion
#>  9 democracy      1708 0.0652 WordsPerMillion
#> 10 democracy      1709 0.0681 WordsPerMillion
#> # … with 2,237 more rows
#> # ℹ Use `print(n = ...)` to see more rows
…
As we might expect, most volumes classified as “Political Science”, “History”, and “Social Sciences” mention democracy more often than medicine or agriculture, especially in the second half of the 20th century. But a surprising number of books classified as “Education” mention democracy quite a bit, especially right around the Second World War.

It is also possible to further limit the query to, e.g., books published in a particular language or written by a particular author. For example, this gives the number of texts that use the word “democracy” in 1900-2000, grouped by library classification and language.

res3 <- query_bookworm(word = "democracy",
                       lims = c(1900, 2000),
                       groups = c("lc_classes", "languages"),
                       counttype = c("TextCount"))

res3 %>% 
  filter(languages == "eng") %>% 
  arrange(desc(value))
#> # A tibble: 22 × 7
#>    word      lc_classes                   langu…¹  value count…² min_y…³ max_y…⁴
#>    <chr>     <chr>                        <chr>    <int> <chr>     <dbl>   <dbl>
#>  1 democracy unknown                      eng     697511 TextCo…    1900    2000
#>  2 democracy Social Sciences              eng     186912 TextCo…    1900    2000
#>  3 democracy General and Old World Histo… eng     133276 TextCo…    1900    2000
#>  4 democracy Language and Literature      eng     117172 TextCo…    1900    2000
#>  5 democracy Political Science            eng      91759 TextCo…    1900    2000
#>  6 democracy Education                    eng      65825 TextCo…    1900    2000
#>  7 democracy Philosophy, Psychology, and… eng      61692 TextCo…    1900    2000
#>  8 democracy Law                          eng      56733 TextCo…    1900    2000
#>  9 democracy Bibliography, Library Scien… eng      55101 TextCo…    1900    2000
#> 10 democracy History of America           eng      48800 TextCo…    1900    2000
#> # … with 12 more rows, and abbreviated variable names ¹​languages, ²​counttype,
#> #   ³​min_year, ⁴​max_year
#> # ℹ Use `print(n = ...)` to see more rows

Among texts which have some classification (most don’t!), ~90,000 political science texts mention the term.

And this query finds how many volumes between 1900 and 2000 had Alexis de Tocqueville as a first author published in English:

res3 <- query_bookworm(lims = c(1900, 2000),
                       groups = c("date_year"),
                       counttype = "TotalTexts",
                       mainauthor = c("Tocqueville, Alexis de, 1805-1859.",
                                             "Tocqueville, Alexis de, 1805-1859"),
                       languages = "eng")

res3
#> # A tibble: 23 × 3
#>    date_year value counttype 
#>        <int> <int> <chr>     
#>  1      1900     9 TotalTexts
#>  2      1904     2 TotalTexts
#>  3      1909     1 TotalTexts
#>  4      1948     4 TotalTexts
#>  5      1949     1 TotalTexts
#>  6      1952     2 TotalTexts
#>  7      1954     7 TotalTexts
#>  8      1958     1 TotalTexts
#>  9      1959     4 TotalTexts
#> 10      1961     2 TotalTexts
#> # … with 13 more rows
#> # ℹ Use `print(n = ...)` to see more rows
…
We can also get a sample of the book titles and links for a particular year. (It’s a limited sample; the database will only pull the top 100 books mentioning the term, weighted by the frequency of the term in the volume). For example, we can pull out the top 100 books in the category “Education” that mention the word “democracy” in 1941, the year where education books seem to be most likely to mention democracy:

res4 <- query_bookworm(word = "democracy",
                       date_year = "1941",
                       lc_classes = "Education",
                       method = "search_results")

res4
#> # A tibble: 100 × 3
#>    htid                      title                                         url  
#>    <chr>                     <chr>                                         <chr>
#>  1 nc01.ark:/13960/t2v41mn4r Teaching democracy in the North Carolina pub… http…
#>  2 mdp.39015062763720        The education of free men in American democr… http…
#>  3 uc1.$b67929               The education of free men in American democr… http…
#>  4 mdp.39015068297905        The education of free men in American democr… http…
#>  5 uc1.$b67873               Pennsylvania bill of rights week. Recommenda… http…
#>  6 mdp.39015035886111        Education in a world of fear,                 http…
#>  7 coo.31924013433044        Education in a world of fear,                 http…
#>  8 mdp.39015031665543        Education and the morale of a free people.    http…
#>  9 uiug.30112108068831       Proceedings of the convention.                http…
#> 10 uc1.$b67928               Education and the morale of a free people.    http…
#> # … with 90 more rows
#> # ℹ Use `print(n = ...)` to see more rows

If you need a bigger sample, use the function workset_builder() to query the Hathi Trust’s Workset Builder 2.0; this can help you download even hundreds of thousands of volume IDs that meet specified criteria. (See also the article on example workflows for more).

We can investigate further any of these volumes by downloading their associated “Extracted Features” file (that is, a file with token counts and part of speech information that the Hathi Trust makes available). Here we download the word frequencies for the second Hathi Trust id, The education of free men in American democracy., available at http://hdl.handle.net/2027/mdp.39015062763720, as a nice tidy tibble suitable for analysis with a package like tidytext.

tmp <- tempdir()

extracted_features <- get_hathi_counts(res4$htid[2], dir = tmp)

extracted_features
#> # A tibble: 20,600 × 6
#>    htid               token       POS   count section  page
#>    <chr>              <chr>       <chr> <int> <chr>   <int>
#>  1 mdp.39015062763720 COMMISSION  NNP       1 body        1
#>  2 mdp.39015062763720 in          IN        1 body        1
#>  3 mdp.39015062763720 Free        NNP       1 body        1
#>  4 mdp.39015062763720 Men         NNP       1 body        1
#>  5 mdp.39015062763720 Democracy   NNP       1 body        1
#>  6 mdp.39015062763720 School      NNP       1 body        1
#>  7 mdp.39015062763720 POLICIES    NNPS      1 body        1
#>  8 mdp.39015062763720 National    NNP       1 body        1
#>  9 mdp.39015062763720 The         DT        1 body        1
#> 10 mdp.39015062763720 Association NNP       2 body        1
#> # … with 20,590 more rows
#> # ℹ Use `print(n = ...)` to see more rows
…
